;   z80dasm symbol file for iload.bin

start:          equ  0xFD10

;   strings area
s_title:        equ  0xFD52
s_startaddr:    equ  0xFD75
s_loaderr:      equ  0xFD88
s_waiting:      equ  0xFDA3
s_syntaxerr:    equ  0xFDBB
s_cksumerr:     equ  0xFDC9
s_iload:        equ  0xFDD9
s_addrerr:      equ  0xFDE1
